LastName,FirstName,Contact,Password,EmailAddress
Case,Denise,660.562.1136,xxxx,dcase@nwmissouri.edu
Wong,Dennis,660.562.1802,yyyy,dennisw@nwmissouri.edu
Rogers,Michael,660.562.1551,zzzz,michael@nwmissouri.edu
Bandi,Ajay,660.562.1199,vvvv,ajay@nwmissouri.edu
Bhowmik,Tanmay,660.562.1103,ttt,bhowmik@nwmissouri.edu
